따로 기획서 없이 생각난대로 테이블쓴것||||
ID|NAME|FIRST_REWARD|GOLD_REWARD|
0|황금향을 찾아서 - 1|24|34|
1|황금향을 찾아서 - 2|25|35|
2|황금향을 찾아서 - 3|26|36|
3|황금향을 찾아서 - 4|27|37|
4|황금향을 찾아서 - 5|28|38|
5|황금향을 찾아서 - 6|29|39|
6|황금향을 찾아서 - 7|30|40|
7|황금향을 찾아서 - 8|31|41|
8|황금향을 찾아서 - 9|32|42|
9|황금향을 찾아서 - 10|33|7|
